Kiva Crowdfunding
…
KIVA’s Reach by Loan Theme

aggregated_data <- merged_data %>%
  group_by(`Loan Theme Type`) %>%
  summarise(TotalFundedAmount = sum(funded_amount, na.rm = TRUE)) %>%
  arrange(desc(TotalFundedAmount))
print(aggregated_data)

# A tibble: 65 × 2
   `Loan Theme Type`       TotalFundedAmount
   <chr>                               <dbl>
 1 General                          13506075
 2 Higher Education                  1826175
 3 Water                             1407475
 4 Underserved                       1284650
 5 Green                             1260550
 6 Women Entrepreneurs               1022450
 7 Agriculture                        874550
 8 Vulnerable Women                   519325
 9 Bridge/Income Smoothing            507900
10 General (Women)                    497100
# ℹ 55 more rows
…
